%YAML 1.1
%TAG !u! tag:unity3d.com,2011:
--- !u!1001 &5264246766109069510
PrefabInstance:
  m_ObjectHideFlags: 0
  serializedVersion: 2
  m_Modification:
    m_TransformParent: {fileID: 0}
    m_Modifications:
    - target: {fileID: 4080449664046660054, guid: 45e1b9b9c073e5a459d285a1655420b0, type: 3}
      propertyPath: m_Name
      value: virusDeathPurple
      objectReference: {fileID: 0}
    - target: {fileID: 7014601147161301726, guid: 45e1b9b9c073e5a459d285a1655420b0, type: 3}
      propertyPath: m_RootOrder
      value: 0
      objectReference: {fileID: 0}
    - target: {fileID: 7014601147161301726, guid: 45e1b9b9c073e5a459d285a1655420b0, type: 3}
      propertyPath: m_LocalPosition.x
      value: -5.0788507
      objectReference: {fileID: 0}
    - target: {fileID: 7014601147161301726, guid: 45e1b9b9c073e5a459d285a1655420b0, type: 3}
      propertyPath: m_LocalPosition.y
      value: -1.2606461
      objectReference: {fileID: 0}
    - target: {fileID: 7014601147161301726, guid: 45e1b9b9c073e5a459d285a1655420b0, type: 3}
      propertyPath: m_LocalPosition.z
      value: 0
      objectReference: {fileID: 0}
    - target: {fileID: 7014601147161301726, guid: 45e1b9b9c073e5a459d285a1655420b0, type: 3}
      propertyPath: m_LocalRotation.w
      value: 1
      objectReference: {fileID: 0}
    - target: {fileID: 7014601147161301726, guid: 45e1b9b9c073e5a459d285a1655420b0, type: 3}
      propertyPath: m_LocalRotation.x
      value: 0
      objectReference: {fileID: 0}
    - target: {fileID: 7014601147161301726, guid: 45e1b9b9c073e5a459d285a1655420b0, type: 3}
      propertyPath: m_LocalRotation.y
      value: 0
      objectReference: {fileID: 0}
    - target: {fileID: 7014601147161301726, guid: 45e1b9b9c073e5a459d285a1655420b0, type: 3}
      propertyPath: m_LocalRotation.z
      value: 0
      objectReference: {fileID: 0}
    - target: {fileID: 7014601147161301726, guid: 45e1b9b9c073e5a459d285a1655420b0, type: 3}
      propertyPath: m_LocalEulerAnglesHint.x
      value: 0
      objectReference: {fileID: 0}
    - target: {fileID: 7014601147161301726, guid: 45e1b9b9c073e5a459d285a1655420b0, type: 3}
      propertyPath: m_LocalEulerAnglesHint.y
      value: 0
      objectReference: {fileID: 0}
    - target: {fileID: 7014601147161301726, guid: 45e1b9b9c073e5a459d285a1655420b0, type: 3}
      propertyPath: m_LocalEulerAnglesHint.z
      value: 0
      objectReference: {fileID: 0}
    m_RemovedComponents: []
  m_SourcePrefab: {fileID: 100100000, guid: 45e1b9b9c073e5a459d285a1655420b0, type: 3}
